<?xml version="1.0" encoding="UTF-8" standalone="no"?>
<!DOCTYPE svg PUBLIC "-//W3C//DTD SVG 1.1//EN"
 "http://www.w3.org/Graphics/SVG/1.1/DTD/svg11.dtd">
<!-- Generated by graphviz version 2.36.0 (20140111.2315)
 -->
<!-- Title: NOKIMARU Pages: 1 -->
<svg width="1178pt" height="1965pt"
 viewBox="0.00 0.00 1178.00 1965.00" xmlns="http://www.w3.org/2000/svg" xmlns:xlink="http://www.w3.org/1999/xlink">
<g id="graph0" class="graph" transform="scale(1 1) rotate(0) translate(4 1961)">
<title>NOKIMARU</title>
<polygon fill="white" stroke="none" points="-4,4 -4,-1961 1174,-1961 1174,4 -4,4"/>
<!-- 軒丸瓦\n001 &#45; 449 -->
<g id="node1" class="node"><title>軒丸瓦\n001 &#45; 449</title>
<text text-anchor="middle" x="35" y="-1330.8" font-family="Times,serif" font-size="14.00">軒丸瓦</text>
<text text-anchor="middle" x="35" y="-1315.8" font-family="Times,serif" font-size="14.00">001 &#45; 449</text>
</g>
<!-- 幾何学文\n009 &#45; 039 -->
<g id="node2" class="node"><title>幾何学文\n009 &#45; 039</title>
<text text-anchor="middle" x="150" y="-1726.8" font-family="Times,serif" font-size="14.00">幾何学文</text>
<text text-anchor="middle" x="150" y="-1711.8" font-family="Times,serif" font-size="14.00">009 &#45; 039</text>
</g>
<!-- 軒丸瓦\n001 &#45; 449&#45;&#45;幾何学文\n009 &#45; 039 -->
<g id="edge1" class="edge"><title>軒丸瓦\n001 &#45; 449&#45;&#45;幾何学文\n009 &#45; 039</title>
<path fill="none" stroke="black" d="M41.4502,-1346.1C60.5396,-1413 124.262,-1636.31 143.472,-1703.63"/>
</g>
<!-- 単弁蓮花文\n040 &#45; 199 -->
<g id="node14" class="node"><title>単弁蓮花文\n040 &#45; 199</title>
<text text-anchor="middle" x="150" y="-1330.8" font-family="Times,serif" font-size="14.00">単弁蓮花文</text>
<text text-anchor="middle" x="150" y="-1315.8" font-family="Times,serif" font-size="14.00">040 &#45; 199</text>
</g>
<!-- 軒丸瓦\n001 &#45; 449&#45;&#45;単弁蓮花文\n040 &#45; 199 -->
<g id="edge13" class="edge"><title>軒丸瓦\n001 &#45; 449&#45;&#45;単弁蓮花文\n040 &#45; 199</title>
<path fill="none" stroke="black" d="M69.5978,-1327C80.9177,-1327 93.7141,-1327 105.676,-1327"/>
</g>
<!-- 複弁蓮花文\n200 &#45; 369 -->
<g id="node67" class="node"><title>複弁蓮花文\n200 &#45; 369</title>
<text text-anchor="middle" x="150" y="-750.8" font-family="Times,serif" font-size="14.00">複弁蓮花文</text>
<text text-anchor="middle" x="150" y="-735.8" font-family="Times,serif" font-size="14.00">200 &#45; 369</text>
</g>
<!-- 軒丸瓦\n001 &#45; 449&#45;&#45;複弁蓮花文\n200 &#45; 369 -->
<g id="edge66" class="edge"><title>軒丸瓦\n001 &#45; 449&#45;&#45;複弁蓮花文\n200 &#45; 369</title>
<path fill="none" stroke="black" d="M39.7597,-1307.7C56.9735,-1219.35 128.16,-853.964 145.284,-766.076"/>
</g>
<!-- 重圏文\n009 &#45; 019 -->
<g id="node3" class="node"><title>重圏文\n009 &#45; 019</title>
<text text-anchor="middle" x="289" y="-1834.8" font-family="Times,serif" font-size="14.00">重圏文</text>
<text text-anchor="middle" x="289" y="-1819.8" font-family="Times,serif" font-size="14.00">009 &#45; 019</text>
</g>
<!-- 幾何学文\n009 &#45; 039&#45;&#45;重圏文\n009 &#45; 019 -->
<g id="edge2" class="edge"><title>幾何学文\n009 &#45; 039&#45;&#45;重圏文\n009 &#45; 019</title>
<path fill="none" stroke="black" d="M175.177,-1742.06C200.066,-1761.68 238.635,-1792.08 263.603,-1811.77"/>
</g>
<!-- 輻状文\n020 &#45; 029 -->
<g id="node12" class="node"><title>輻状文\n020 &#45; 029</title>
<text text-anchor="middle" x="289" y="-1726.8" font-family="Times,serif" font-size="14.00">輻状文</text>
<text text-anchor="middle" x="289" y="-1711.8" font-family="Times,serif" font-size="14.00">020 &#45; 029</text>
</g>
<!-- 幾何学文\n009 &#45; 039&#45;&#45;輻状文\n020 &#45; 029 -->
<g id="edge11" class="edge"><title>幾何学文\n009 &#45; 039&#45;&#45;輻状文\n020 &#45; 029</title>
<path fill="none" stroke="black" d="M187.354,-1723C208.123,-1723 233.991,-1723 254.301,-1723"/>
</g>
<!-- 一重圏 -->
<g id="node4" class="node"><title>一重圏</title>
<text text-anchor="middle" x="428" y="-1935.3" font-family="Times,serif" font-size="14.00">一重圏</text>
</g>
<!-- 重圏文\n009 &#45; 019&#45;&#45;一重圏 -->
<g id="edge3" class="edge"><title>重圏文\n009 &#45; 019&#45;&#45;一重圏</title>
<path fill="none" stroke="black" d="M310.528,-1850.28C329.087,-1867.31 357.484,-1892.42 384,-1912 388.539,-1915.35 393.495,-1918.71 398.378,-1921.87"/>
</g>
<!-- 二重圏 -->
<g id="node6" class="node"><title>二重圏</title>
<text text-anchor="middle" x="428" y="-1881.3" font-family="Times,serif" font-size="14.00">二重圏</text>
</g>
<!-- 重圏文\n009 &#45; 019&#45;&#45;二重圏 -->
<g id="edge5" class="edge"><title>重圏文\n009 &#45; 019&#45;&#45;二重圏</title>
<path fill="none" stroke="black" d="M323.514,-1844.21C346.487,-1853.26 376.636,-1865.15 398.461,-1873.75"/>
</g>
<!-- 三重圏 -->
<g id="node8" class="node"><title>三重圏</title>
<text text-anchor="middle" x="428" y="-1827.3" font-family="Times,serif" font-size="14.00">三重圏</text>
</g>
<!-- 重圏文\n009 &#45; 019&#45;&#45;三重圏 -->
<g id="edge7" class="edge"><title>重圏文\n009 &#45; 019&#45;&#45;三重圏</title>
<path fill="none" stroke="black" d="M323.514,-1831C346.487,-1831 376.636,-1831 398.461,-1831"/>
</g>
<!-- 四重圏 -->
<g id="node10" class="node"><title>四重圏</title>
<text text-anchor="middle" x="428" y="-1773.3" font-family="Times,serif" font-size="14.00">四重圏</text>
</g>
<!-- 重圏文\n009 &#45; 019&#45;&#45;四重圏 -->
<g id="edge9" class="edge"><title>重圏文\n009 &#45; 019&#45;&#45;四重圏</title>
<path fill="none" stroke="black" d="M323.514,-1817.79C346.487,-1808.74 376.636,-1796.85 398.461,-1788.25"/>
</g>
<!-- 6009 -->
<g id="node5" class="node"><title>6009</title>
<text text-anchor="middle" x="581" y="-1935.3" font-family="Times,serif" font-size="14.00">6009</text>
</g>
<!-- 一重圏&#45;&#45;6009 -->
<g id="edge4" class="edge"><title>一重圏&#45;&#45;6009</title>
<path fill="none" stroke="black" d="M457.757,-1939C485.482,-1939 527.07,-1939 553.873,-1939"/>
</g>
<!-- 6010 -->
<g id="node7" class="node"><title>6010</title>
<text text-anchor="middle" x="581" y="-1881.3" font-family="Times,serif" font-size="14.00">6010</text>
</g>
<!-- 二重圏&#45;&#45;6010 -->
<g id="edge6" class="edge"><title>二重圏&#45;&#45;6010</title>
<path fill="none" stroke="black" d="M457.757,-1885C485.482,-1885 527.07,-1885 553.873,-1885"/>
</g>
<!-- 6011 &#45; 16 -->
<g id="node9" class="node"><title>6011 &#45; 16</title>
<text text-anchor="middle" x="581" y="-1827.3" font-family="Times,serif" font-size="14.00">6011 &#45; 16</text>
</g>
<!-- 三重圏&#45;&#45;6011 &#45; 16 -->
<g id="edge8" class="edge"><title>三重圏&#45;&#45;6011 &#45; 16</title>
<path fill="none" stroke="black" d="M457.757,-1831C483,-1831 519.736,-1831 546.341,-1831"/>
</g>
<!-- 6018 -->
<g id="node11" class="node"><title>6018</title>
<text text-anchor="middle" x="581" y="-1773.3" font-family="Times,serif" font-size="14.00">6018</text>
</g>
<!-- 四重圏&#45;&#45;6018 -->
<g id="edge10" class="edge"><title>四重圏&#45;&#45;6018</title>
<path fill="none" stroke="black" d="M457.757,-1777C485.482,-1777 527.07,-1777 553.873,-1777"/>
</g>
<!-- 6022・23 -->
<g id="node13" class="node"><title>6022・23</title>
<text text-anchor="middle" x="428" y="-1719.3" font-family="Times,serif" font-size="14.00">6022・23</text>
</g>
<!-- 輻状文\n020 &#45; 029&#45;&#45;6022・23 -->
<g id="edge12" class="edge"><title>輻状文\n020 &#45; 029&#45;&#45;6022・23</title>
<path fill="none" stroke="black" d="M323.514,-1723C345.378,-1723 373.741,-1723 395.244,-1723"/>
</g>
<!-- 素弁\n040 &#45; 099 -->
<g id="node15" class="node"><title>素弁\n040 &#45; 099</title>
<text text-anchor="middle" x="289" y="-1618.8" font-family="Times,serif" font-size="14.00">素弁</text>
<text text-anchor="middle" x="289" y="-1603.8" font-family="Times,serif" font-size="14.00">040 &#45; 099</text>
</g>
<!-- 単弁蓮花文\n040 &#45; 199&#45;&#45;素弁\n040 &#45; 099 -->
<g id="edge14" class="edge"><title>単弁蓮花文\n040 &#45; 199&#45;&#45;素弁\n040 &#45; 099</title>
<path fill="none" stroke="black" d="M160.202,-1346.34C185.159,-1398.81 253.928,-1543.37 278.838,-1595.74"/>
</g>
<!-- 重弁\n100 &#45; 149\n172・174 -->
<g id="node25" class="node"><title>重弁\n100 &#45; 149\n172・174</title>
<text text-anchor="middle" x="289" y="-1396.3" font-family="Times,serif" font-size="14.00">重弁</text>
<text text-anchor="middle" x="289" y="-1381.3" font-family="Times,serif" font-size="14.00">100 &#45; 149</text>
<text text-anchor="middle" x="289" y="-1366.3" font-family="Times,serif" font-size="14.00">172・174</text>
</g>
<!-- 単弁蓮花文\n040 &#45; 199&#45;&#45;重弁\n100 &#45; 149\n172・174 -->
<g id="edge24" class="edge"><title>単弁蓮花文\n040 &#45; 199&#45;&#45;重弁\n100 &#45; 149\n172・174</title>
<path fill="none" stroke="black" d="M194.348,-1345.35C213.789,-1353.58 236.369,-1363.14 254.486,-1370.81"/>
</g>
<!-- のぞき花弁\n150 &#45; 159 -->
<g id="node63" class="node"><title>のぞき花弁\n150 &#45; 159</title>
<text text-anchor="middle" x="289" y="-1272.8" font-family="Times,serif" font-size="14.00">のぞき花弁</text>
<text text-anchor="middle" x="289" y="-1257.8" font-family="Times,serif" font-size="14.00">150 &#45; 159</text>
</g>
<!-- 単弁蓮花文\n040 &#45; 199&#45;&#45;のぞき花弁\n150 &#45; 159 -->
<g id="edge62" class="edge"><title>単弁蓮花文\n040 &#45; 199&#45;&#45;のぞき花弁\n150 &#45; 159</title>
<path fill="none" stroke="black" d="M194.348,-1308.65C211.124,-1301.55 230.237,-1293.45 246.803,-1286.44"/>
</g>
<!-- 凹弁\n160 &#45;  -->
<g id="node65" class="node"><title>凹弁\n160 &#45; </title>
<text text-anchor="middle" x="289" y="-1190.8" font-family="Times,serif" font-size="14.00">凹弁</text>
<text text-anchor="middle" x="289" y="-1175.8" font-family="Times,serif" font-size="14.00">160 &#45; </text>
</g>
<!-- 単弁蓮花文\n040 &#45; 199&#45;&#45;凹弁\n160 &#45;  -->
<g id="edge64" class="edge"><title>単弁蓮花文\n040 &#45; 199&#45;&#45;凹弁\n160 &#45; </title>
<path fill="none" stroke="black" d="M167.846,-1307.81C183.565,-1290.12 207.854,-1263.29 230,-1241 241.829,-1229.09 255.556,-1216.27 266.685,-1206.11"/>
</g>
<!-- 柏葉状 -->
<g id="node16" class="node"><title>柏葉状</title>
<text text-anchor="middle" x="428" y="-1665.3" font-family="Times,serif" font-size="14.00">柏葉状</text>
</g>
<!-- 素弁\n040 &#45; 099&#45;&#45;柏葉状 -->
<g id="edge15" class="edge"><title>素弁\n040 &#45; 099&#45;&#45;柏葉状</title>
<path fill="none" stroke="black" d="M323.514,-1628.21C346.487,-1637.26 376.636,-1649.15 398.461,-1657.75"/>
</g>
<!-- 突出表現 -->
<g id="node18" class="node"><title>突出表現</title>
<text text-anchor="middle" x="428" y="-1611.3" font-family="Times,serif" font-size="14.00">突出表現</text>
</g>
<!-- 素弁\n040 &#45; 099&#45;&#45;突出表現 -->
<g id="edge17" class="edge"><title>素弁\n040 &#45; 099&#45;&#45;突出表現</title>
<path fill="none" stroke="black" d="M323.514,-1615C343.952,-1615 370.069,-1615 390.953,-1615"/>
</g>
<!-- 6075 -->
<g id="node17" class="node"><title>6075</title>
<text text-anchor="middle" x="581" y="-1719.3" font-family="Times,serif" font-size="14.00">6075</text>
</g>
<!-- 柏葉状&#45;&#45;6075 -->
<g id="edge16" class="edge"><title>柏葉状&#45;&#45;6075</title>
<path fill="none" stroke="black" d="M457.757,-1679.28C485.482,-1689.2 527.07,-1704.07 553.873,-1713.66"/>
</g>
<!-- 珠文縁 -->
<g id="node19" class="node"><title>珠文縁</title>
<text text-anchor="middle" x="581" y="-1665.3" font-family="Times,serif" font-size="14.00">珠文縁</text>
</g>
<!-- 突出表現&#45;&#45;珠文縁 -->
<g id="edge18" class="edge"><title>突出表現&#45;&#45;珠文縁</title>
<path fill="none" stroke="black" d="M465.168,-1627.93C491.518,-1637.36 526.735,-1649.95 551.191,-1658.7"/>
</g>
<!-- 珠文 + 唐草文縁 -->
<g id="node21" class="node"><title>珠文 + 唐草文縁</title>
<text text-anchor="middle" x="581" y="-1611.3" font-family="Times,serif" font-size="14.00">珠文 + 唐草文縁</text>
</g>
<!-- 突出表現&#45;&#45;珠文 + 唐草文縁 -->
<g id="edge20" class="edge"><title>突出表現&#45;&#45;珠文 + 唐草文縁</title>
<path fill="none" stroke="black" d="M465.168,-1615C482.095,-1615 502.681,-1615 521.722,-1615"/>
</g>
<!-- 圏線 + 線鋸歯文縁 -->
<g id="node23" class="node"><title>圏線 + 線鋸歯文縁</title>
<text text-anchor="middle" x="581" y="-1557.3" font-family="Times,serif" font-size="14.00">圏線 + 線鋸歯文縁</text>
</g>
<!-- 突出表現&#45;&#45;圏線 + 線鋸歯文縁 -->
<g id="edge22" class="edge"><title>突出表現&#45;&#45;圏線 + 線鋸歯文縁</title>
<path fill="none" stroke="black" d="M465.168,-1602.07C484.451,-1595.17 508.481,-1586.58 529.569,-1579.03"/>
</g>
<!-- 6083 -->
<g id="node20" class="node"><title>6083</title>
<text text-anchor="middle" x="754" y="-1665.3" font-family="Times,serif" font-size="14.00">6083</text>
</g>
<!-- 珠文縁&#45;&#45;6083 -->
<g id="edge19" class="edge"><title>珠文縁&#45;&#45;6083</title>
<path fill="none" stroke="black" d="M610.622,-1669C643.043,-1669 695.434,-1669 726.813,-1669"/>
</g>
<!-- 6091 -->
<g id="node22" class="node"><title>6091</title>
<text text-anchor="middle" x="754" y="-1611.3" font-family="Times,serif" font-size="14.00">6091</text>
</g>
<!-- 珠文 + 唐草文縁&#45;&#45;6091 -->
<g id="edge21" class="edge"><title>珠文 + 唐草文縁&#45;&#45;6091</title>
<path fill="none" stroke="black" d="M640.37,-1615C669.783,-1615 703.975,-1615 726.901,-1615"/>
</g>
<!-- 6093 -->
<g id="node24" class="node"><title>6093</title>
<text text-anchor="middle" x="754" y="-1557.3" font-family="Times,serif" font-size="14.00">6093</text>
</g>
<!-- 圏線 + 線鋸歯文縁&#45;&#45;6093 -->
<g id="edge23" class="edge"><title>圏線 + 線鋸歯文縁&#45;&#45;6093</title>
<path fill="none" stroke="black" d="M647.136,-1561C674.884,-1561 705.672,-1561 726.859,-1561"/>
</g>
<!-- 弁端尖る\n100 &#45; 119 -->
<g id="node26" class="node"><title>弁端尖る\n100 &#45; 119</title>
<text text-anchor="middle" x="428" y="-1458.8" font-family="Times,serif" font-size="14.00">弁端尖る</text>
<text text-anchor="middle" x="428" y="-1443.8" font-family="Times,serif" font-size="14.00">100 &#45; 119</text>
</g>
<!-- 重弁\n100 &#45; 149\n172・174&#45;&#45;弁端尖る\n100 &#45; 119 -->
<g id="edge25" class="edge"><title>重弁\n100 &#45; 149\n172・174&#45;&#45;弁端尖る\n100 &#45; 119</title>
<path fill="none" stroke="black" d="M323.514,-1402.12C344.427,-1412.81 371.287,-1426.53 392.401,-1437.32"/>
</g>
<!-- 弁端湾入\n120 &#45; 127 -->
<g id="node27" class="node"><title>弁端湾入\n120 &#45; 127</title>
<text text-anchor="middle" x="428" y="-1402.8" font-family="Times,serif" font-size="14.00">弁端湾入</text>
<text text-anchor="middle" x="428" y="-1387.8" font-family="Times,serif" font-size="14.00">120 &#45; 127</text>
</g>
<!-- 重弁\n100 &#45; 149\n172・174&#45;&#45;弁端湾入\n120 &#45; 127 -->
<g id="edge26" class="edge"><title>重弁\n100 &#45; 149\n172・174&#45;&#45;弁端湾入\n120 &#45; 127</title>
<path fill="none" stroke="black" d="M323.514,-1388.42C343.952,-1390.51 370.069,-1393.18 390.953,-1395.32"/>
</g>
<!-- 菊花状\n128 &#45; 149\n172・174 -->
<g id="node34" class="node"><title>菊花状\n128 &#45; 149\n172・174</title>
<text text-anchor="middle" x="428" y="-1302.3" font-family="Times,serif" font-size="14.00">菊花状</text>
<text text-anchor="middle" x="428" y="-1287.3" font-family="Times,serif" font-size="14.00">128 &#45; 149</text>
<text text-anchor="middle" x="428" y="-1272.3" font-family="Times,serif" font-size="14.00">172・174</text>
</g>
<!-- 重弁\n100 &#45; 149\n172・174&#45;&#45;菊花状\n128 &#45; 149\n172・174 -->
<g id="edge33" class="edge"><title>重弁\n100 &#45; 149\n172・174&#45;&#45;菊花状\n128 &#45; 149\n172・174</title>
<path fill="none" stroke="black" d="M323.514,-1362.01C344.744,-1347.44 372.103,-1328.67 393.357,-1314.08"/>
</g>
<!-- 珠文 + 線鋸歯文縁 -->
<g id="node28" class="node"><title>珠文 + 線鋸歯文縁</title>
<text text-anchor="middle" x="581" y="-1503.3" font-family="Times,serif" font-size="14.00">珠文 + 線鋸歯文縁</text>
</g>
<!-- 弁端湾入\n120 &#45; 127&#45;&#45;珠文 + 線鋸歯文縁 -->
<g id="edge27" class="edge"><title>弁端湾入\n120 &#45; 127&#45;&#45;珠文 + 線鋸歯文縁</title>
<path fill="none" stroke="black" d="M461.542,-1418.15C465.242,-1420.91 468.82,-1423.88 472,-1427 492.33,-1446.94 485.618,-1462.4 508,-1480 512.197,-1483.3 516.841,-1486.23 521.689,-1488.82"/>
</g>
<!-- 珠文 + 素文縁 -->
<g id="node30" class="node"><title>珠文 + 素文縁</title>
<text text-anchor="middle" x="581" y="-1449.3" font-family="Times,serif" font-size="14.00">珠文 + 素文縁</text>
</g>
<!-- 弁端湾入\n120 &#45; 127&#45;&#45;珠文 + 素文縁 -->
<g id="edge29" class="edge"><title>弁端湾入\n120 &#45; 127&#45;&#45;珠文 + 素文縁</title>
<path fill="none" stroke="black" d="M465.168,-1411.93C484.451,-1418.83 508.481,-1427.42 529.569,-1434.97"/>
</g>
<!-- 線鋸歯 + 素文縁 -->
<g id="node32" class="node"><title>線鋸歯 + 素文縁</title>
<text text-anchor="middle" x="581" y="-1395.3" font-family="Times,serif" font-size="14.00">線鋸歯 + 素文縁</text>
</g>
<!-- 弁端湾入\n120 &#45; 127&#45;&#45;線鋸歯 + 素文縁 -->
<g id="edge31" class="edge"><title>弁端湾入\n120 &#45; 127&#45;&#45;線鋸歯 + 素文縁</title>
<path fill="none" stroke="black" d="M465.168,-1399C482.095,-1399 502.681,-1399 521.722,-1399"/>
</g>
<!-- 6121 -->
<g id="node29" class="node"><title>6121</title>
<text text-anchor="middle" x="754" y="-1503.3" font-family="Times,serif" font-size="14.00">6121</text>
</g>
<!-- 珠文 + 線鋸歯文縁&#45;&#45;6121 -->
<g id="edge28" class="edge"><title>珠文 + 線鋸歯文縁&#45;&#45;6121</title>
<path fill="none" stroke="black" d="M647.136,-1507C674.884,-1507 705.672,-1507 726.859,-1507"/>
</g>
<!-- 6125・26 -->
<g id="node31" class="node"><title>6125・26</title>
<text text-anchor="middle" x="754" y="-1449.3" font-family="Times,serif" font-size="14.00">6125・26</text>
</g>
<!-- 珠文 + 素文縁&#45;&#45;6125・26 -->
<g id="edge30" class="edge"><title>珠文 + 素文縁&#45;&#45;6125・26</title>
<path fill="none" stroke="black" d="M633.306,-1453C661.933,-1453 696.685,-1453 721.351,-1453"/>
</g>
<!-- 6127 -->
<g id="node33" class="node"><title>6127</title>
<text text-anchor="middle" x="754" y="-1395.3" font-family="Times,serif" font-size="14.00">6127</text>
</g>
<!-- 線鋸歯 + 素文縁&#45;&#45;6127 -->
<g id="edge32" class="edge"><title>線鋸歯 + 素文縁&#45;&#45;6127</title>
<path fill="none" stroke="black" d="M640.37,-1399C669.783,-1399 703.975,-1399 726.901,-1399"/>
</g>
<!-- 面違鋸歯文縁 -->
<g id="node35" class="node"><title>面違鋸歯文縁</title>
<text text-anchor="middle" x="581" y="-1341.3" font-family="Times,serif" font-size="14.00">面違鋸歯文縁</text>
</g>
<!-- 菊花状\n128 &#45; 149\n172・174&#45;&#45;面違鋸歯文縁 -->
<g id="edge34" class="edge"><title>菊花状\n128 &#45; 149\n172・174&#45;&#45;面違鋸歯文縁</title>
<path fill="none" stroke="black" d="M462.512,-1302.98C482.322,-1310.07 507.787,-1319.18 529.942,-1327.1"/>
</g>
<!-- 珠文 + 凹線鋸歯文縁 -->
<g id="node37" class="node"><title>珠文 + 凹線鋸歯文縁</title>
<text text-anchor="middle" x="581" y="-1287.3" font-family="Times,serif" font-size="14.00">珠文 + 凹線鋸歯文縁</text>
</g>
<!-- 菊花状\n128 &#45; 149\n172・174&#45;&#45;珠文 + 凹線鋸歯文縁 -->
<g id="edge36" class="edge"><title>菊花状\n128 &#45; 149\n172・174&#45;&#45;珠文 + 凹線鋸歯文縁</title>
<path fill="none" stroke="black" d="M462.512,-1291C475.979,-1291 492.06,-1291 507.938,-1291"/>
</g>
<!-- 珠文 + 凸鋸歯文縁 -->
<g id="node39" class="node"><title>珠文 + 凸鋸歯文縁</title>
<text text-anchor="middle" x="581" y="-1233.3" font-family="Times,serif" font-size="14.00">珠文 + 凸鋸歯文縁</text>
</g>
<!-- 菊花状\n128 &#45; 149\n172・174&#45;&#45;珠文 + 凸鋸歯文縁 -->
<g id="edge38" class="edge"><title>菊花状\n128 &#45; 149\n172・174&#45;&#45;珠文 + 凸鋸歯文縁</title>
<path fill="none" stroke="black" d="M462.512,-1279.02C482.235,-1271.96 507.564,-1262.9 529.65,-1255.01"/>
</g>
<!-- 珠文 + 線鋸歯文縁\nないし\n珠文 + 素文縁 -->
<g id="node41" class="node"><title>珠文 + 線鋸歯文縁\nないし\n珠文 + 素文縁</title>
<text text-anchor="middle" x="581" y="-1173.3" font-family="Times,serif" font-size="14.00">珠文 + 線鋸歯文縁</text>
<text text-anchor="middle" x="581" y="-1158.3" font-family="Times,serif" font-size="14.00">ないし</text>
<text text-anchor="middle" x="581" y="-1143.3" font-family="Times,serif" font-size="14.00">珠文 + 素文縁</text>
</g>
<!-- 菊花状\n128 &#45; 149\n172・174&#45;&#45;珠文 + 線鋸歯文縁\nないし\n珠文 + 素文縁 -->
<g id="edge40" class="edge"><title>菊花状\n128 &#45; 149\n172・174&#45;&#45;珠文 + 線鋸歯文縁\nないし\n珠文 + 素文縁</title>
<path fill="none" stroke="black" d="M462.012,-1264.53C465.474,-1261.42 468.869,-1258.2 472,-1255 489.908,-1236.69 489.121,-1227.31 508,-1210 516.416,-1202.28 526.181,-1194.92 535.751,-1188.38"/>
</g>
<!-- 圏線 + 素文縁 -->
<g id="node59" class="node"><title>圏線 + 素文縁</title>
<text text-anchor="middle" x="581" y="-1072.3" font-family="Times,serif" font-size="14.00">圏線 + 素文縁</text>
</g>
<!-- 菊花状\n128 &#45; 149\n172・174&#45;&#45;圏線 + 素文縁 -->
<g id="edge58" class="edge"><title>菊花状\n128 &#45; 149\n172・174&#45;&#45;圏線 + 素文縁</title>
<path fill="none" stroke="black" d="M462.593,-1266.53C466.112,-1262.96 469.361,-1259.09 472,-1255 504.269,-1204.98 473.513,-1174.52 508,-1126 517.258,-1112.98 531.034,-1102.22 544.065,-1094.07"/>
</g>
<!-- 単弁重弁菊花状素文縁 -->
<g id="node61" class="node"><title>単弁重弁菊花状素文縁</title>
<text text-anchor="middle" x="581" y="-971.3" font-family="Times,serif" font-size="14.00">素文縁</text>
</g>
<!-- 菊花状\n128 &#45; 149\n172・174&#45;&#45;単弁重弁菊花状素文縁 -->
<g id="edge60" class="edge"><title>菊花状\n128 &#45; 149\n172・174&#45;&#45;単弁重弁菊花状素文縁</title>
<path fill="none" stroke="black" d="M462.578,-1267.21C466.193,-1263.47 469.47,-1259.39 472,-1255 518.455,-1174.5 465.712,-1131.77 508,-1049 519.418,-1026.65 539.881,-1006.62 556.081,-993.047"/>
</g>
<!-- 6128 -->
<g id="node36" class="node"><title>6128</title>
<text text-anchor="middle" x="754" y="-1341.3" font-family="Times,serif" font-size="14.00">6128</text>
</g>
<!-- 面違鋸歯文縁&#45;&#45;6128 -->
<g id="edge35" class="edge"><title>面違鋸歯文縁&#45;&#45;6128</title>
<path fill="none" stroke="black" d="M632.381,-1345C663.315,-1345 701.673,-1345 726.714,-1345"/>
</g>
<!-- 6129 -->
<g id="node38" class="node"><title>6129</title>
<text text-anchor="middle" x="754" y="-1287.3" font-family="Times,serif" font-size="14.00">6129</text>
</g>
<!-- 珠文 + 凹線鋸歯文縁&#45;&#45;6129 -->
<g id="edge37" class="edge"><title>珠文 + 凹線鋸歯文縁&#45;&#45;6129</title>
<path fill="none" stroke="black" d="M654.024,-1291C679.764,-1291 707.175,-1291 726.608,-1291"/>
</g>
<!-- 6131 -->
<g id="node40" class="node"><title>6131</title>
<text text-anchor="middle" x="754" y="-1233.3" font-family="Times,serif" font-size="14.00">6131</text>
</g>
<!-- 珠文 + 凸鋸歯文縁&#45;&#45;6131 -->
<g id="edge39" class="edge"><title>珠文 + 凸鋸歯文縁&#45;&#45;6131</title>
<path fill="none" stroke="black" d="M647.136,-1237C674.884,-1237 705.672,-1237 726.859,-1237"/>
</g>
<!-- 間弁無し （C系統） -->
<g id="node42" class="node"><title>間弁無し （C系統）</title>
<text text-anchor="middle" x="754" y="-1179.3" font-family="Times,serif" font-size="14.00">間弁無し （C系統）</text>
</g>
<!-- 珠文 + 線鋸歯文縁\nないし\n珠文 + 素文縁&#45;&#45;間弁無し （C系統） -->
<g id="edge41" class="edge"><title>珠文 + 線鋸歯文縁\nないし\n珠文 + 素文縁&#45;&#45;間弁無し （C系統）</title>
<path fill="none" stroke="black" d="M647.136,-1170C661.293,-1171.74 676.242,-1173.57 690.303,-1175.3"/>
</g>
<!-- 独立した間弁\n(A系統) -->
<g id="node44" class="node"><title>独立した間弁\n(A系統)</title>
<text text-anchor="middle" x="754" y="-1131.8" font-family="Times,serif" font-size="14.00">独立した間弁</text>
<text text-anchor="middle" x="754" y="-1116.8" font-family="Times,serif" font-size="14.00">(A系統)</text>
</g>
<!-- 珠文 + 線鋸歯文縁\nないし\n珠文 + 素文縁&#45;&#45;独立した間弁\n(A系統) -->
<g id="edge43" class="edge"><title>珠文 + 線鋸歯文縁\nないし\n珠文 + 素文縁&#45;&#45;独立した間弁\n(A系統)</title>
<path fill="none" stroke="black" d="M647.136,-1149.05C666.295,-1145.24 686.904,-1141.14 704.801,-1137.58"/>
</g>
<!-- 連続した間弁\n(B系統) -->
<g id="node54" class="node"><title>連続した間弁\n(B系統)</title>
<text text-anchor="middle" x="754" y="-1075.8" font-family="Times,serif" font-size="14.00">連続した間弁</text>
<text text-anchor="middle" x="754" y="-1060.8" font-family="Times,serif" font-size="14.00">(B系統)</text>
</g>
<!-- 珠文 + 線鋸歯文縁\nないし\n珠文 + 素文縁&#45;&#45;連続した間弁\n(B系統) -->
<g id="edge53" class="edge"><title>珠文 + 線鋸歯文縁\nないし\n珠文 + 素文縁&#45;&#45;連続した間弁\n(B系統)</title>
<path fill="none" stroke="black" d="M625.576,-1135.62C645.037,-1124.2 668.408,-1110.96 690,-1100 695.977,-1096.97 702.354,-1093.92 708.669,-1091.01"/>
</g>
<!-- 6132・33・40・41 -->
<g id="node43" class="node"><title>6132・33・40・41</title>
<text text-anchor="middle" x="908" y="-1233.3" font-family="Times,serif" font-size="14.00">6132・33・40・41</text>
</g>
<!-- 間弁無し （C系統）&#45;&#45;6132・33・40・41 -->
<g id="edge42" class="edge"><title>間弁無し （C系統）&#45;&#45;6132・33・40・41</title>
<path fill="none" stroke="black" d="M806.037,-1201.13C822.165,-1206.86 839.98,-1213.19 856.098,-1218.92"/>
</g>
<!-- 人字形間弁 -->
<g id="node45" class="node"><title>人字形間弁</title>
<text text-anchor="middle" x="908" y="-1179.3" font-family="Times,serif" font-size="14.00">人字形間弁</text>
</g>
<!-- 独立した間弁\n(A系統)&#45;&#45;人字形間弁 -->
<g id="edge44" class="edge"><title>独立した間弁\n(A系統)&#45;&#45;人字形間弁</title>
<path fill="none" stroke="black" d="M803.094,-1145.4C822.576,-1152.45 844.9,-1160.53 863.849,-1167.39"/>
</g>
<!-- 三角形ないし\n水滴形間弁 -->
<g id="node47" class="node"><title>三角形ないし\n水滴形間弁</title>
<text text-anchor="middle" x="908" y="-1131.8" font-family="Times,serif" font-size="14.00">三角形ないし</text>
<text text-anchor="middle" x="908" y="-1116.8" font-family="Times,serif" font-size="14.00">水滴形間弁</text>
</g>
<!-- 独立した間弁\n(A系統)&#45;&#45;三角形ないし\n水滴形間弁 -->
<g id="edge46" class="edge"><title>独立した間弁\n(A系統)&#45;&#45;三角形ないし\n水滴形間弁</title>
<path fill="none" stroke="black" d="M803.094,-1128C821.098,-1128 841.528,-1128 859.479,-1128"/>
</g>
<!-- 6130・34 -->
<g id="node46" class="node"><title>6130・34</title>
<text text-anchor="middle" x="1033" y="-1245.3" font-family="Times,serif" font-size="14.00">6130・34</text>
</g>
<!-- 人字形間弁&#45;&#45;6130・34 -->
<g id="edge45" class="edge"><title>人字形間弁&#45;&#45;6130・34</title>
<path fill="none" stroke="black" d="M945.015,-1201.12C950.716,-1204.05 956.532,-1207.09 962,-1210 974.645,-1216.74 988.446,-1224.37 1000.43,-1231.08"/>
</g>
<!-- 弁長い -->
<g id="node48" class="node"><title>弁長い</title>
<text text-anchor="middle" x="1033" y="-1191.3" font-family="Times,serif" font-size="14.00">弁長い</text>
</g>
<!-- 三角形ないし\n水滴形間弁&#45;&#45;弁長い -->
<g id="edge47" class="edge"><title>三角形ないし\n水滴形間弁&#45;&#45;弁長い</title>
<path fill="none" stroke="black" d="M945.265,-1147.02C950.879,-1150.01 956.603,-1153.07 962,-1156 975.695,-1163.43 990.805,-1171.82 1003.47,-1178.92"/>
</g>
<!-- 弁短い -->
<g id="node50" class="node"><title>弁短い</title>
<text text-anchor="middle" x="1033" y="-1137.3" font-family="Times,serif" font-size="14.00">弁短い</text>
</g>
<!-- 三角形ないし\n水滴形間弁&#45;&#45;弁短い -->
<g id="edge49" class="edge"><title>三角形ないし\n水滴形間弁&#45;&#45;弁短い</title>
<path fill="none" stroke="black" d="M956.555,-1133.03C972.374,-1134.7 989.492,-1136.51 1003.42,-1137.98"/>
</g>
<!-- 弁中間 -->
<g id="node52" class="node"><title>弁中間</title>
<text text-anchor="middle" x="1033" y="-1083.3" font-family="Times,serif" font-size="14.00">弁中間</text>
</g>
<!-- 三角形ないし\n水滴形間弁&#45;&#45;弁中間 -->
<g id="edge51" class="edge"><title>三角形ないし\n水滴形間弁&#45;&#45;弁中間</title>
<path fill="none" stroke="black" d="M956.555,-1112.15C972.374,-1106.88 989.492,-1101.17 1003.42,-1096.53"/>
</g>
<!-- 6135 -->
<g id="node49" class="node"><title>6135</title>
<text text-anchor="middle" x="1137" y="-1191.3" font-family="Times,serif" font-size="14.00">6135</text>
</g>
<!-- 弁長い&#45;&#45;6135 -->
<g id="edge48" class="edge"><title>弁長い&#45;&#45;6135</title>
<path fill="none" stroke="black" d="M1062.68,-1195C1077.53,-1195 1095.53,-1195 1109.97,-1195"/>
</g>
<!-- 6137 -->
<g id="node51" class="node"><title>6137</title>
<text text-anchor="middle" x="1137" y="-1137.3" font-family="Times,serif" font-size="14.00">6137</text>
</g>
<!-- 弁短い&#45;&#45;6137 -->
<g id="edge50" class="edge"><title>弁短い&#45;&#45;6137</title>
<path fill="none" stroke="black" d="M1062.68,-1141C1077.53,-1141 1095.53,-1141 1109.97,-1141"/>
</g>
<!-- 6138・39 -->
<g id="node53" class="node"><title>6138・39</title>
<text text-anchor="middle" x="1137" y="-1083.3" font-family="Times,serif" font-size="14.00">6138・39</text>
</g>
<!-- 弁中間&#45;&#45;6138・39 -->
<g id="edge52" class="edge"><title>弁中間&#45;&#45;6138・39</title>
<path fill="none" stroke="black" d="M1062.68,-1087C1075.65,-1087 1091.01,-1087 1104.31,-1087"/>
</g>
<!-- 波形 -->
<g id="node55" class="node"><title>波形</title>
<text text-anchor="middle" x="908" y="-1042.3" font-family="Times,serif" font-size="14.00">波形</text>
</g>
<!-- 連続した間弁\n(B系統)&#45;&#45;波形 -->
<g id="edge54" class="edge"><title>連続した間弁\n(B系統)&#45;&#45;波形</title>
<path fill="none" stroke="black" d="M803.094,-1063.77C828.838,-1059.37 859.544,-1054.12 880.87,-1050.47"/>
</g>
<!-- T字形 -->
<g id="node57" class="node"><title>T字形</title>
<text text-anchor="middle" x="908" y="-988.3" font-family="Times,serif" font-size="14.00">T字形</text>
</g>
<!-- 連続した間弁\n(B系統)&#45;&#45;T字形 -->
<g id="edge56" class="edge"><title>連続した間弁\n(B系統)&#45;&#45;T字形</title>
<path fill="none" stroke="black" d="M800.589,-1052.97C806.532,-1050.13 812.472,-1047.11 818,-1044 834.976,-1034.45 837.283,-1029 854,-1019 862.508,-1013.91 872.088,-1008.84 880.739,-1004.49"/>
</g>
<!-- 6142 -->
<g id="node56" class="node"><title>6142</title>
<text text-anchor="middle" x="1033" y="-1029.3" font-family="Times,serif" font-size="14.00">6142</text>
</g>
<!-- 波形&#45;&#45;6142 -->
<g id="edge55" class="edge"><title>波形&#45;&#45;6142</title>
<path fill="none" stroke="black" d="M935.085,-1043.24C955.959,-1041.04 985.089,-1037.96 1005.95,-1035.75"/>
</g>
<!-- 6143 &#45; 46 -->
<g id="node58" class="node"><title>6143 &#45; 46</title>
<text text-anchor="middle" x="1033" y="-975.3" font-family="Times,serif" font-size="14.00">6143 &#45; 46</text>
</g>
<!-- T字形&#45;&#45;6143 &#45; 46 -->
<g id="edge57" class="edge"><title>T字形&#45;&#45;6143 &#45; 46</title>
<path fill="none" stroke="black" d="M935.085,-989.243C953.561,-987.29 978.506,-984.654 998.461,-982.545"/>
</g>
<!-- 6172 -->
<g id="node60" class="node"><title>6172</title>
<text text-anchor="middle" x="754" y="-1013.3" font-family="Times,serif" font-size="14.00">6172</text>
</g>
<!-- 圏線 + 素文縁&#45;&#45;6172 -->
<g id="edge59" class="edge"><title>圏線 + 素文縁&#45;&#45;6172</title>
<path fill="none" stroke="black" d="M633.306,-1058.3C663.999,-1047.71 701.732,-1034.69 726.527,-1026.13"/>
</g>
<!-- 6174 -->
<g id="node62" class="node"><title>6174</title>
<text text-anchor="middle" x="754" y="-959.3" font-family="Times,serif" font-size="14.00">6174</text>
</g>
<!-- 単弁重弁菊花状素文縁&#45;&#45;6174 -->
<g id="edge61" class="edge"><title>単弁重弁菊花状素文縁&#45;&#45;6174</title>
<path fill="none" stroke="black" d="M610.622,-972.991C643.043,-970.716 695.434,-967.04 726.813,-964.838"/>
</g>
<!-- 6151 -->
<g id="node64" class="node"><title>6151</title>
<text text-anchor="middle" x="428" y="-1224.3" font-family="Times,serif" font-size="14.00">6151</text>
</g>
<!-- のぞき花弁\n150 &#45; 159&#45;&#45;6151 -->
<g id="edge63" class="edge"><title>のぞき花弁\n150 &#45; 159&#45;&#45;6151</title>
<path fill="none" stroke="black" d="M331.105,-1256.7C353.646,-1249.95 380.927,-1241.79 400.618,-1235.9"/>
</g>
<!-- 6160・62 -->
<g id="node66" class="node"><title>6160・62</title>
<text text-anchor="middle" x="428" y="-1170.3" font-family="Times,serif" font-size="14.00">6160・62</text>
</g>
<!-- 凹弁\n160 &#45; &#45;&#45;6160・62 -->
<g id="edge65" class="edge"><title>凹弁\n160 &#45; &#45;&#45;6160・62</title>
<path fill="none" stroke="black" d="M316.091,-1184.52C338.605,-1182.39 371.197,-1179.3 395.226,-1177.02"/>
</g>
<!-- 外縁無し -->
<g id="node68" class="node"><title>外縁無し</title>
<text text-anchor="middle" x="289" y="-892.3" font-family="Times,serif" font-size="14.00">外縁無し</text>
</g>
<!-- 複弁蓮花文\n200 &#45; 369&#45;&#45;外縁無し -->
<g id="edge67" class="edge"><title>複弁蓮花文\n200 &#45; 369&#45;&#45;外縁無し</title>
<path fill="none" stroke="black" d="M162.134,-766.239C176.067,-789.28 201.579,-828.237 230,-856 238.225,-864.035 248.23,-871.562 257.598,-877.871"/>
</g>
<!-- 素文縁\n6201 &#45; 209 -->
<g id="node70" class="node"><title>素文縁\n6201 &#45; 209</title>
<text text-anchor="middle" x="289" y="-831.8" font-family="Times,serif" font-size="14.00">素文縁</text>
<text text-anchor="middle" x="289" y="-816.8" font-family="Times,serif" font-size="14.00">6201 &#45; 209</text>
</g>
<!-- 複弁蓮花文\n200 &#45; 369&#45;&#45;素文縁\n6201 &#45; 209 -->
<g id="edge69" class="edge"><title>複弁蓮花文\n200 &#45; 369&#45;&#45;素文縁\n6201 &#45; 209</title>
<path fill="none" stroke="black" d="M183.467,-766.196C205.306,-779.108 233.976,-796.059 255.766,-808.942"/>
</g>
<!-- 圏線 + 外縁\n210 &#45; 229 -->
<g id="node76" class="node"><title>圏線 + 外縁\n210 &#45; 229</title>
<text text-anchor="middle" x="289" y="-750.8" font-family="Times,serif" font-size="14.00">圏線 + 外縁</text>
<text text-anchor="middle" x="289" y="-735.8" font-family="Times,serif" font-size="14.00">210 &#45; 229</text>
</g>
<!-- 複弁蓮花文\n200 &#45; 369&#45;&#45;圏線 + 外縁\n210 &#45; 229 -->
<g id="edge75" class="edge"><title>複弁蓮花文\n200 &#45; 369&#45;&#45;圏線 + 外縁\n210 &#45; 229</title>
<path fill="none" stroke="black" d="M194.348,-747C210.34,-747 228.456,-747 244.464,-747"/>
</g>
<!-- 珠文縁\n230 &#45; 259 -->
<g id="node88" class="node"><title>珠文縁\n230 &#45; 259</title>
<text text-anchor="middle" x="289" y="-668.8" font-family="Times,serif" font-size="14.00">珠文縁</text>
<text text-anchor="middle" x="289" y="-653.8" font-family="Times,serif" font-size="14.00">230 &#45; 259</text>
</g>
<!-- 複弁蓮花文\n200 &#45; 369&#45;&#45;珠文縁\n230 &#45; 259 -->
<g id="edge87" class="edge"><title>複弁蓮花文\n200 &#45; 369&#45;&#45;珠文縁\n230 &#45; 259</title>
<path fill="none" stroke="black" d="M182.775,-727.981C204.749,-714.829 233.883,-697.391 255.923,-684.199"/>
</g>
<!-- 重圏文縁\n260 &#45; 269 -->
<g id="node95" class="node"><title>重圏文縁\n260 &#45; 269</title>
<text text-anchor="middle" x="289" y="-612.8" font-family="Times,serif" font-size="14.00">重圏文縁</text>
<text text-anchor="middle" x="289" y="-597.8" font-family="Times,serif" font-size="14.00">260 &#45; 269</text>
</g>
<!-- 複弁蓮花文\n200 &#45; 369&#45;&#45;重圏文縁\n260 &#45; 269 -->
<g id="edge94" class="edge"><title>複弁蓮花文\n200 &#45; 369&#45;&#45;重圏文縁\n260 &#45; 269</title>
<path fill="none" stroke="black" d="M160.935,-727.646C174.021,-703.73 199.04,-663.017 230,-637 236.506,-631.533 244.261,-626.844 251.949,-622.953"/>
</g>
<!-- 珠文 + 鋸歯文縁\n270 &#45; 324 -->
<g id="node96" class="node"><title>珠文 + 鋸歯文縁\n270 &#45; 324</title>
<text text-anchor="middle" x="289" y="-345.8" font-family="Times,serif" font-size="14.00">珠文 + 鋸歯文縁</text>
<text text-anchor="middle" x="289" y="-330.8" font-family="Times,serif" font-size="14.00">270 &#45; 324</text>
</g>
<!-- 複弁蓮花文\n200 &#45; 369&#45;&#45;珠文 + 鋸歯文縁\n270 &#45; 324 -->
<g id="edge95" class="edge"><title>複弁蓮花文\n200 &#45; 369&#45;&#45;珠文 + 鋸歯文縁\n270 &#45; 324</title>
<path fill="none" stroke="black" d="M157.516,-727.738C180.594,-659.514 258.303,-429.79 281.444,-361.379"/>
</g>
<!-- 6200 -->
<g id="node69" class="node"><title>6200</title>
<text text-anchor="middle" x="428" y="-905.3" font-family="Times,serif" font-size="14.00">6200</text>
</g>
<!-- 外縁無し&#45;&#45;6200 -->
<g id="edge68" class="edge"><title>外縁無し&#45;&#45;6200</title>
<path fill="none" stroke="black" d="M324.571,-899.28C348.193,-901.522 379.016,-904.447 400.656,-906.5"/>
</g>
<!-- 素文縁複弁蓮花文間弁A系統 -->
<g id="node71" class="node"><title>素文縁複弁蓮花文間弁A系統</title>
<text text-anchor="middle" x="428" y="-851.3" font-family="Times,serif" font-size="14.00">間弁A系統</text>
</g>
<!-- 素文縁\n6201 &#45; 209&#45;&#45;素文縁複弁蓮花文間弁A系統 -->
<g id="edge70" class="edge"><title>素文縁\n6201 &#45; 209&#45;&#45;素文縁複弁蓮花文間弁A系統</title>
<path fill="none" stroke="black" d="M327.074,-835.307C345.3,-838.899 367.316,-843.238 386.039,-846.927"/>
</g>
<!-- 蓮子二重 -->
<g id="node72" class="node"><title>蓮子二重</title>
<text text-anchor="middle" x="581" y="-905.3" font-family="Times,serif" font-size="14.00">蓮子二重</text>
</g>
<!-- 素文縁複弁蓮花文間弁A系統&#45;&#45;蓮子二重 -->
<g id="edge71" class="edge"><title>素文縁複弁蓮花文間弁A系統&#45;&#45;蓮子二重</title>
<path fill="none" stroke="black" d="M469.863,-869.613C493.009,-877.89 521.699,-888.151 543.994,-896.124"/>
</g>
<!-- 蓮子一重 -->
<g id="node74" class="node"><title>蓮子一重</title>
<text text-anchor="middle" x="581" y="-851.3" font-family="Times,serif" font-size="14.00">蓮子一重</text>
</g>
<!-- 素文縁複弁蓮花文間弁A系統&#45;&#45;蓮子一重 -->
<g id="edge73" class="edge"><title>素文縁複弁蓮花文間弁A系統&#45;&#45;蓮子一重</title>
<path fill="none" stroke="black" d="M469.863,-855C493.009,-855 521.699,-855 543.994,-855"/>
</g>
<!-- 6201 -->
<g id="node73" class="node"><title>6201</title>
<text text-anchor="middle" x="754" y="-905.3" font-family="Times,serif" font-size="14.00">6201</text>
</g>
<!-- 蓮子二重&#45;&#45;6201 -->
<g id="edge72" class="edge"><title>蓮子二重&#45;&#45;6201</title>
<path fill="none" stroke="black" d="M618.265,-909C650.813,-909 697.803,-909 726.819,-909"/>
</g>
<!-- 6208・6249 -->
<g id="node75" class="node"><title>6208・6249</title>
<text text-anchor="middle" x="754" y="-851.3" font-family="Times,serif" font-size="14.00">6208・6249</text>
</g>
<!-- 蓮子一重&#45;&#45;6208・6249 -->
<g id="edge74" class="edge"><title>蓮子一重&#45;&#45;6208・6249</title>
<path fill="none" stroke="black" d="M618.265,-855C646.598,-855 685.873,-855 714.711,-855"/>
</g>
<!-- 凸鋸歯縁 -->
<g id="node78" class="node"><title>凸鋸歯縁</title>
<text text-anchor="middle" x="428" y="-797.3" font-family="Times,serif" font-size="14.00">凸鋸歯縁</text>
</g>
<!-- 圏線 + 外縁\n210 &#45; 229&#45;&#45;凸鋸歯縁 -->
<g id="edge76" class="edge"><title>圏線 + 外縁\n210 &#45; 229&#45;&#45;凸鋸歯縁</title>
<path fill="none" stroke="black" d="M333.724,-764.234C352.049,-771.457 373.106,-779.757 390.572,-786.641"/>
</g>
<!-- 線鋸歯縁 -->
<g id="node81" class="node"><title>線鋸歯縁</title>
<text text-anchor="middle" x="428" y="-743.3" font-family="Times,serif" font-size="14.00">線鋸歯縁</text>
</g>
<!-- 圏線 + 外縁\n210 &#45; 229&#45;&#45;線鋸歯縁 -->
<g id="edge79" class="edge"><title>圏線 + 外縁\n210 &#45; 229&#45;&#45;線鋸歯縁</title>
<path fill="none" stroke="black" d="M333.724,-747C352.049,-747 373.106,-747 390.572,-747"/>
</g>
<!-- 圏線素文縁複弁蓮花文 -->
<g id="node85" class="node"><title>圏線素文縁複弁蓮花文</title>
<text text-anchor="middle" x="428" y="-689.3" font-family="Times,serif" font-size="14.00">素文縁</text>
</g>
<!-- 圏線 + 外縁\n210 &#45; 229&#45;&#45;圏線素文縁複弁蓮花文 -->
<g id="edge82" class="edge"><title>圏線 + 外縁\n210 &#45; 229&#45;&#45;圏線素文縁複弁蓮花文</title>
<path fill="none" stroke="black" d="M333.724,-729.766C354.868,-721.432 379.651,-711.663 398.355,-704.291"/>
</g>
<!-- 圏線凸鋸歯縁複弁蓮花文間弁A系統 -->
<g id="node77" class="node"><title>圏線凸鋸歯縁複弁蓮花文間弁A系統</title>
<text text-anchor="middle" x="581" y="-797.3" font-family="Times,serif" font-size="14.00">間弁A系統</text>
</g>
<!-- 6225 -->
<g id="node79" class="node"><title>6225</title>
<text text-anchor="middle" x="754" y="-797.3" font-family="Times,serif" font-size="14.00">6225</text>
</g>
<!-- 圏線凸鋸歯縁複弁蓮花文間弁A系統&#45;&#45;6225 -->
<g id="edge78" class="edge"><title>圏線凸鋸歯縁複弁蓮花文間弁A系統&#45;&#45;6225</title>
<path fill="none" stroke="black" d="M622.525,-801C654.82,-801 699.084,-801 726.856,-801"/>
</g>
<!-- 凸鋸歯縁&#45;&#45;圏線凸鋸歯縁複弁蓮花文間弁A系統 -->
<g id="edge77" class="edge"><title>凸鋸歯縁&#45;&#45;圏線凸鋸歯縁複弁蓮花文間弁A系統</title>
<path fill="none" stroke="black" d="M465.168,-801C487.504,-801 516.212,-801 539.336,-801"/>
</g>
<!-- 圏線線鋸歯縁複弁蓮花文間弁A系統 -->
<g id="node80" class="node"><title>圏線線鋸歯縁複弁蓮花文間弁A系統</title>
<text text-anchor="middle" x="581" y="-743.3" font-family="Times,serif" font-size="14.00">間弁A系統</text>
</g>
<!-- 6226・28 -->
<g id="node82" class="node"><title>6226・28</title>
<text text-anchor="middle" x="754" y="-743.3" font-family="Times,serif" font-size="14.00">6226・28</text>
</g>
<!-- 圏線線鋸歯縁複弁蓮花文間弁A系統&#45;&#45;6226・28 -->
<g id="edge81" class="edge"><title>圏線線鋸歯縁複弁蓮花文間弁A系統&#45;&#45;6226・28</title>
<path fill="none" stroke="black" d="M622.525,-747C652.746,-747 693.449,-747 721.309,-747"/>
</g>
<!-- 線鋸歯縁&#45;&#45;圏線線鋸歯縁複弁蓮花文間弁A系統 -->
<g id="edge80" class="edge"><title>線鋸歯縁&#45;&#45;圏線線鋸歯縁複弁蓮花文間弁A系統</title>
<path fill="none" stroke="black" d="M465.168,-747C487.504,-747 516.212,-747 539.336,-747"/>
</g>
<!-- 圏線素文縁複弁蓮花文間弁A系統 -->
<g id="node83" class="node"><title>圏線素文縁複弁蓮花文間弁A系統</title>
<text text-anchor="middle" x="581" y="-689.3" font-family="Times,serif" font-size="14.00">間弁A系統</text>
</g>
<!-- 6227 -->
<g id="node86" class="node"><title>6227</title>
<text text-anchor="middle" x="754" y="-689.3" font-family="Times,serif" font-size="14.00">6227</text>
</g>
<!-- 圏線素文縁複弁蓮花文間弁A系統&#45;&#45;6227 -->
<g id="edge84" class="edge"><title>圏線素文縁複弁蓮花文間弁A系統&#45;&#45;6227</title>
<path fill="none" stroke="black" d="M622.525,-693C654.82,-693 699.084,-693 726.856,-693"/>
</g>
<!-- 圏線素文縁複弁蓮花文間弁C系統 -->
<g id="node84" class="node"><title>圏線素文縁複弁蓮花文間弁C系統</title>
<text text-anchor="middle" x="581" y="-635.3" font-family="Times,serif" font-size="14.00">間弁C系統</text>
</g>
<!-- 6229 -->
<g id="node87" class="node"><title>6229</title>
<text text-anchor="middle" x="754" y="-635.3" font-family="Times,serif" font-size="14.00">6229</text>
</g>
<!-- 圏線素文縁複弁蓮花文間弁C系統&#45;&#45;6229 -->
<g id="edge86" class="edge"><title>圏線素文縁複弁蓮花文間弁C系統&#45;&#45;6229</title>
<path fill="none" stroke="black" d="M622.525,-639C654.82,-639 699.084,-639 726.856,-639"/>
</g>
<!-- 圏線素文縁複弁蓮花文&#45;&#45;圏線素文縁複弁蓮花文間弁A系統 -->
<g id="edge83" class="edge"><title>圏線素文縁複弁蓮花文&#45;&#45;圏線素文縁複弁蓮花文間弁A系統</title>
<path fill="none" stroke="black" d="M457.757,-693C480.861,-693 513.592,-693 539.372,-693"/>
</g>
<!-- 圏線素文縁複弁蓮花文&#45;&#45;圏線素文縁複弁蓮花文間弁C系統 -->
<g id="edge85" class="edge"><title>圏線素文縁複弁蓮花文&#45;&#45;圏線素文縁複弁蓮花文間弁C系統</title>
<path fill="none" stroke="black" d="M457.757,-682.716C480.861,-674.454 513.592,-662.749 539.372,-653.529"/>
</g>
<!-- 複弁蓮花文珠文縁間弁A系統 -->
<g id="node89" class="node"><title>複弁蓮花文珠文縁間弁A系統</title>
<text text-anchor="middle" x="428" y="-608.3" font-family="Times,serif" font-size="14.00">間弁A系統</text>
</g>
<!-- 珠文縁\n230 &#45; 259&#45;&#45;複弁蓮花文珠文縁間弁A系統 -->
<g id="edge88" class="edge"><title>珠文縁\n230 &#45; 259&#45;&#45;複弁蓮花文珠文縁間弁A系統</title>
<path fill="none" stroke="black" d="M323.514,-652.035C342.447,-644.71 366.253,-635.501 386.258,-627.761"/>
</g>
<!-- 複弁蓮花文珠文縁間弁C系統 -->
<g id="node91" class="node"><title>複弁蓮花文珠文縁間弁C系統</title>
<text text-anchor="middle" x="428" y="-500.3" font-family="Times,serif" font-size="14.00">間弁C系統</text>
</g>
<!-- 珠文縁\n230 &#45; 259&#45;&#45;複弁蓮花文珠文縁間弁C系統 -->
<g id="edge90" class="edge"><title>珠文縁\n230 &#45; 259&#45;&#45;複弁蓮花文珠文縁間弁C系統</title>
<path fill="none" stroke="black" d="M323.689,-652.81C332.249,-648.67 340.996,-643.425 348,-637 366.901,-619.663 401.574,-554.161 417.963,-522.016"/>
</g>
<!-- 6231・33・35 &#45; 39・48 -->
<g id="node90" class="node"><title>6231・33・35 &#45; 39・48</title>
<text text-anchor="middle" x="581" y="-581.3" font-family="Times,serif" font-size="14.00">6231・33・35 &#45; 39・48</text>
</g>
<!-- 複弁蓮花文珠文縁間弁A系統&#45;&#45;6231・33・35 &#45; 39・48 -->
<g id="edge89" class="edge"><title>複弁蓮花文珠文縁間弁A系統&#45;&#45;6231・33・35 &#45; 39・48</title>
<path fill="none" stroke="black" d="M469.863,-604.693C483.75,-602.21 499.634,-599.37 514.934,-596.634"/>
</g>
<!-- 6234 -->
<g id="node92" class="node"><title>6234</title>
<text text-anchor="middle" x="581" y="-527.3" font-family="Times,serif" font-size="14.00">6234</text>
</g>
<!-- 複弁蓮花文珠文縁間弁C系統&#45;&#45;6234 -->
<g id="edge91" class="edge"><title>複弁蓮花文珠文縁間弁C系統&#45;&#45;6234</title>
<path fill="none" stroke="black" d="M469.863,-511.307C496.59,-516.086 530.71,-522.187 553.839,-526.322"/>
</g>
<!-- 6244 -->
<g id="node93" class="node"><title>6244</title>
<text text-anchor="middle" x="581" y="-473.3" font-family="Times,serif" font-size="14.00">6244</text>
</g>
<!-- 複弁蓮花文珠文縁間弁C系統&#45;&#45;6244 -->
<g id="edge92" class="edge"><title>複弁蓮花文珠文縁間弁C系統&#45;&#45;6244</title>
<path fill="none" stroke="black" d="M469.863,-496.693C496.59,-491.914 530.71,-485.813 553.839,-481.678"/>
</g>
<!-- 6299 -->
<g id="node94" class="node"><title>6299</title>
<text text-anchor="middle" x="581" y="-419.3" font-family="Times,serif" font-size="14.00">6299</text>
</g>
<!-- 複弁蓮花文珠文縁間弁C系統&#45;&#45;6299 -->
<g id="edge93" class="edge"><title>複弁蓮花文珠文縁間弁C系統&#45;&#45;6299</title>
<path fill="none" stroke="black" d="M452.265,-485.89C467.527,-474.578 488.246,-460.264 508,-450 522.571,-442.429 539.761,-435.901 553.69,-431.16"/>
</g>
<!-- 面違鋸歯文 -->
<g id="node97" class="node"><title>面違鋸歯文</title>
<text text-anchor="middle" x="428" y="-365.3" font-family="Times,serif" font-size="14.00">面違鋸歯文</text>
</g>
<!-- 珠文 + 鋸歯文縁\n270 &#45; 324&#45;&#45;面違鋸歯文 -->
<g id="edge96" class="edge"><title>珠文 + 鋸歯文縁\n270 &#45; 324&#45;&#45;面違鋸歯文</title>
<path fill="none" stroke="black" d="M348.1,-353.45C360.061,-355.808 372.454,-358.25 383.776,-360.481"/>
</g>
<!-- 凸鋸歯文 -->
<g id="node101" class="node"><title>凸鋸歯文</title>
<text text-anchor="middle" x="428" y="-311.3" font-family="Times,serif" font-size="14.00">凸鋸歯文</text>
</g>
<!-- 珠文 + 鋸歯文縁\n270 &#45; 324&#45;&#45;凸鋸歯文 -->
<g id="edge100" class="edge"><title>珠文 + 鋸歯文縁\n270 &#45; 324&#45;&#45;凸鋸歯文</title>
<path fill="none" stroke="black" d="M348.1,-330.55C362.54,-327.704 377.611,-324.734 390.666,-322.161"/>
</g>
<!-- 線鋸歯文 -->
<g id="node107" class="node"><title>線鋸歯文</title>
<text text-anchor="middle" x="428" y="-217.3" font-family="Times,serif" font-size="14.00">線鋸歯文</text>
</g>
<!-- 珠文 + 鋸歯文縁\n270 &#45; 324&#45;&#45;線鋸歯文 -->
<g id="edge106" class="edge"><title>珠文 + 鋸歯文縁\n270 &#45; 324&#45;&#45;線鋸歯文</title>
<path fill="none" stroke="black" d="M311.708,-322.827C337.663,-299.904 380.785,-261.817 406.29,-239.291"/>
</g>
<!-- 珠文面違鋸歯文縁間弁A系統 -->
<g id="node98" class="node"><title>珠文面違鋸歯文縁間弁A系統</title>
<text text-anchor="middle" x="581" y="-365.3" font-family="Times,serif" font-size="14.00">間弁A系統</text>
</g>
<!-- 面違鋸歯文&#45;&#45;珠文面違鋸歯文縁間弁A系統 -->
<g id="edge97" class="edge"><title>面違鋸歯文&#45;&#45;珠文面違鋸歯文縁間弁A系統</title>
<path fill="none" stroke="black" d="M472.271,-369C493.361,-369 518.581,-369 539.316,-369"/>
</g>
<!-- 珠文面違鋸歯文縁間弁A系統蓮子二重 -->
<g id="node99" class="node"><title>珠文面違鋸歯文縁間弁A系統蓮子二重</title>
<text text-anchor="middle" x="754" y="-392.3" font-family="Times,serif" font-size="14.00">蓮子二重</text>
</g>
<!-- 珠文面違鋸歯文縁間弁A系統&#45;&#45;珠文面違鋸歯文縁間弁A系統蓮子二重 -->
<g id="edge98" class="edge"><title>珠文面違鋸歯文縁間弁A系統&#45;&#45;珠文面違鋸歯文縁間弁A系統蓮子二重</title>
<path fill="none" stroke="black" d="M622.525,-375.399C651.166,-379.921 689.221,-385.93 716.837,-390.29"/>
</g>
<!-- 6271・72 -->
<g id="node100" class="node"><title>6271・72</title>
<text text-anchor="middle" x="908" y="-392.3" font-family="Times,serif" font-size="14.00">6271・72</text>
</g>
<!-- 珠文面違鋸歯文縁間弁A系統蓮子二重&#45;&#45;6271・72 -->
<g id="edge99" class="edge"><title>珠文面違鋸歯文縁間弁A系統蓮子二重&#45;&#45;6271・72</title>
<path fill="none" stroke="black" d="M791.022,-396C816.657,-396 850.774,-396 875.361,-396"/>
</g>
<!-- 珠文凸鋸歯文縁間弁A系統 -->
<g id="node102" class="node"><title>珠文凸鋸歯文縁間弁A系統</title>
<text text-anchor="middle" x="581" y="-311.3" font-family="Times,serif" font-size="14.00">間弁A系統</text>
</g>
<!-- 凸鋸歯文&#45;&#45;珠文凸鋸歯文縁間弁A系統 -->
<g id="edge101" class="edge"><title>凸鋸歯文&#45;&#45;珠文凸鋸歯文縁間弁A系統</title>
<path fill="none" stroke="black" d="M465.168,-315C487.504,-315 516.212,-315 539.336,-315"/>
</g>
<!-- 珠文凸鋸歯文縁間弁A系統蓮子一重 -->
<g id="node103" class="node"><title>珠文凸鋸歯文縁間弁A系統蓮子一重</title>
<text text-anchor="middle" x="754" y="-338.3" font-family="Times,serif" font-size="14.00">蓮子一重</text>
</g>
<!-- 珠文凸鋸歯文縁間弁A系統&#45;&#45;珠文凸鋸歯文縁間弁A系統蓮子一重 -->
<g id="edge102" class="edge"><title>珠文凸鋸歯文縁間弁A系統&#45;&#45;珠文凸鋸歯文縁間弁A系統蓮子一重</title>
<path fill="none" stroke="black" d="M622.525,-321.399C651.166,-325.921 689.221,-331.93 716.837,-336.29"/>
</g>
<!-- 珠文凸鋸歯文縁間弁A系統蓮子二重 -->
<g id="node105" class="node"><title>珠文凸鋸歯文縁間弁A系統蓮子二重</title>
<text text-anchor="middle" x="754" y="-284.3" font-family="Times,serif" font-size="14.00">蓮子二重</text>
</g>
<!-- 珠文凸鋸歯文縁間弁A系統&#45;&#45;珠文凸鋸歯文縁間弁A系統蓮子二重 -->
<g id="edge104" class="edge"><title>珠文凸鋸歯文縁間弁A系統&#45;&#45;珠文凸鋸歯文縁間弁A系統蓮子二重</title>
<path fill="none" stroke="black" d="M622.525,-308.601C651.166,-304.079 689.221,-298.07 716.837,-293.71"/>
</g>
<!-- 6269 -->
<g id="node104" class="node"><title>6269</title>
<text text-anchor="middle" x="908" y="-338.3" font-family="Times,serif" font-size="14.00">6269</text>
</g>
<!-- 珠文凸鋸歯文縁間弁A系統蓮子一重&#45;&#45;6269 -->
<g id="edge103" class="edge"><title>珠文凸鋸歯文縁間弁A系統蓮子一重&#45;&#45;6269</title>
<path fill="none" stroke="black" d="M791.022,-342C818.588,-342 855.963,-342 880.749,-342"/>
</g>
<!-- 6273 -->
<g id="node106" class="node"><title>6273</title>
<text text-anchor="middle" x="908" y="-284.3" font-family="Times,serif" font-size="14.00">6273</text>
</g>
<!-- 珠文凸鋸歯文縁間弁A系統蓮子二重&#45;&#45;6273 -->
<g id="edge105" class="edge"><title>珠文凸鋸歯文縁間弁A系統蓮子二重&#45;&#45;6273</title>
<path fill="none" stroke="black" d="M791.022,-288C818.588,-288 855.963,-288 880.749,-288"/>
</g>
<!-- 珠文線鋸歯文縁間弁A系統 -->
<g id="node108" class="node"><title>珠文線鋸歯文縁間弁A系統</title>
<text text-anchor="middle" x="581" y="-149.3" font-family="Times,serif" font-size="14.00">間弁A系統</text>
</g>
<!-- 線鋸歯文&#45;&#45;珠文線鋸歯文縁間弁A系統 -->
<g id="edge107" class="edge"><title>線鋸歯文&#45;&#45;珠文線鋸歯文縁間弁A系統</title>
<path fill="none" stroke="black" d="M465.168,-204.712C487.679,-194.575 516.661,-181.523 539.877,-171.069"/>
</g>
<!-- 珠文線鋸歯文縁間弁A系統蓮子二重 -->
<g id="node109" class="node"><title>珠文線鋸歯文縁間弁A系統蓮子二重</title>
<text text-anchor="middle" x="754" y="-176.3" font-family="Times,serif" font-size="14.00">蓮子二重</text>
</g>
<!-- 珠文線鋸歯文縁間弁A系統&#45;&#45;珠文線鋸歯文縁間弁A系統蓮子二重 -->
<g id="edge108" class="edge"><title>珠文線鋸歯文縁間弁A系統&#45;&#45;珠文線鋸歯文縁間弁A系統蓮子二重</title>
<path fill="none" stroke="black" d="M622.525,-159.399C651.166,-163.921 689.221,-169.93 716.837,-174.29"/>
</g>
<!-- 珠文線鋸歯文縁間弁A系統蓮子一重 -->
<g id="node112" class="node"><title>珠文線鋸歯文縁間弁A系統蓮子一重</title>
<text text-anchor="middle" x="754" y="-122.3" font-family="Times,serif" font-size="14.00">蓮子一重</text>
</g>
<!-- 珠文線鋸歯文縁間弁A系統&#45;&#45;珠文線鋸歯文縁間弁A系統蓮子一重 -->
<g id="edge111" class="edge"><title>珠文線鋸歯文縁間弁A系統&#45;&#45;珠文線鋸歯文縁間弁A系統蓮子一重</title>
<path fill="none" stroke="black" d="M622.525,-146.601C651.166,-142.079 689.221,-136.07 716.837,-131.71"/>
</g>
<!-- 蓮子1個 -->
<g id="node115" class="node"><title>蓮子1個</title>
<text text-anchor="middle" x="754" y="-41.3" font-family="Times,serif" font-size="14.00">蓮子1個</text>
</g>
<!-- 珠文線鋸歯文縁間弁A系統&#45;&#45;蓮子1個 -->
<g id="edge114" class="edge"><title>珠文線鋸歯文縁間弁A系統&#45;&#45;蓮子1個</title>
<path fill="none" stroke="black" d="M610.622,-134.923C642.187,-114.987 692.682,-83.0955 724.285,-63.1357"/>
</g>
<!-- 6274 &#45; 76・78 -->
<g id="node110" class="node"><title>6274 &#45; 76・78</title>
<text text-anchor="middle" x="908" y="-230.3" font-family="Times,serif" font-size="14.00">6274 &#45; 76・78</text>
</g>
<!-- 珠文線鋸歯文縁間弁A系統蓮子二重&#45;&#45;6274 &#45; 76・78 -->
<g id="edge109" class="edge"><title>珠文線鋸歯文縁間弁A系統蓮子二重&#45;&#45;6274 &#45; 76・78</title>
<path fill="none" stroke="black" d="M791.022,-192.797C812.53,-200.438 840.011,-210.201 862.823,-218.306"/>
</g>
<!-- 6301・02 -->
<g id="node111" class="node"><title>6301・02</title>
<text text-anchor="middle" x="908" y="-176.3" font-family="Times,serif" font-size="14.00">6301・02</text>
</g>
<!-- 珠文線鋸歯文縁間弁A系統蓮子二重&#45;&#45;6301・02 -->
<g id="edge110" class="edge"><title>珠文線鋸歯文縁間弁A系統蓮子二重&#45;&#45;6301・02</title>
<path fill="none" stroke="black" d="M791.022,-180C816.657,-180 850.774,-180 875.361,-180"/>
</g>
<!-- 6279・98 -->
<g id="node113" class="node"><title>6279・98</title>
<text text-anchor="middle" x="908" y="-122.3" font-family="Times,serif" font-size="14.00">6279・98</text>
</g>
<!-- 珠文線鋸歯文縁間弁A系統蓮子一重&#45;&#45;6279・98 -->
<g id="edge112" class="edge"><title>珠文線鋸歯文縁間弁A系統蓮子一重&#45;&#45;6279・98</title>
<path fill="none" stroke="black" d="M791.022,-126C816.657,-126 850.774,-126 875.361,-126"/>
</g>
<!-- 6305・6308 &#45; 11 -->
<g id="node114" class="node"><title>6305・6308 &#45; 11</title>
<text text-anchor="middle" x="908" y="-68.3" font-family="Times,serif" font-size="14.00">6305・6308 &#45; 11</text>
</g>
<!-- 珠文線鋸歯文縁間弁A系統蓮子一重&#45;&#45;6305・6308 &#45; 11 -->
<g id="edge113" class="edge"><title>珠文線鋸歯文縁間弁A系統蓮子一重&#45;&#45;6305・6308 &#45; 11</title>
<path fill="none" stroke="black" d="M791.022,-113.203C810.511,-106.279 834.904,-97.6131 856.284,-90.0176"/>
</g>
<!-- 6313 -->
<g id="node116" class="node"><title>6313</title>
<text text-anchor="middle" x="908" y="-14.3" font-family="Times,serif" font-size="14.00">6313</text>
</g>
<!-- 蓮子1個&#45;&#45;6313 -->
<g id="edge115" class="edge"><title>蓮子1個&#45;&#45;6313</title>
<path fill="none" stroke="black" d="M787.235,-39.274C815.122,-34.3205 854.933,-27.2487 880.87,-22.6415"/>
</g>
</g>
</svg>
